185894
185920
189343
190208
201759
204628
206484
207954
209191
213380
216908
459518
459519
459553
459554
459555
459556
459557
461345
464583
464626
464651
464850
464904
465981
467712
467713
467745
468207
468371
468460
468557
468578
468632
468661
469093
469299
469432
469440
469545
469994
478596
478606
479402
479608
483265
484940
485043
485678
485876
485895
486215
486555
486644
486752
486764
492497
494553
495068
498385
498491
498506
498850
499064
499125
499368
499444
499448
499572
499607
499670
500666
501279
505949
509674
509734
509894
510181
510215
510229
510614
510785
518941
518960
519106
519311
519396
519872
520280
520295
524399
525112
527149
527243
527411
527537
527676
527719
527735
530245
530247
530257
530268
530282
530286
530306
530315
530431
530435
530439
530444
530447
530448
530449
530450
530451
530455
530459
530460
530466
530477
530479
530488
530493
530495
530499
530501
530503
530508
530509
530515
530519
530522
530524
530531
530533
530537
530540
530542
530546
530547
530548
530557
530564
530565
530566
530576
530582
530583
530585
530596
530602
530604
530620
530621
530632
530651
530659
530661
530662
530665
530689
530690
530701
530704
530705
530714
530718
530729
530753
530755
530757
530759
530788
530799
530812
530823
530830
530844
530852
530853
530895
530896
530898
530990
531008
531049
531050
531128
531148
531301
531311
531312
531383
531541
531617
531683
531694
531773
531903
532575
532578
532677
532741
532829
533026
533403
533419
533553
533724
533795
533800
534165
534843
535287
535632
535867
536027
536168
536375
536528
536686
537619
538001
538419
539574
541040
542595
543095
543392
543403
545615
546102
547057
547821
552397
555996
558817
559077
559137
562963
569338
569365
569581
569636
581441
581714
581978
607238
607878
607887
608007
608020
608061
608350
608388
614449
616835
617939
620574
622844
624288
624388
626587
629238
629239
629241
629371
629443
629543
629577
633356
633482
633499
633887
635622
635623
635624
635625
635627
635630
635631
635639
637543
639103
640669
640788
640857
640992
641990
642232
643551
643736
643880
643923
645262
646515
649724
650207
650247
650363
651514
652093
652107
655394
655951
655954
655955
656167
656190
657134
657135
657136
657137
657138
657139
657140
657141
657142
658852
660189
660802
660837
662520
662675
662738
662795
662802
665369
665603
665639
667478
669336
669347
669361
669371
669420
669465
670534
670808
671094
671147
671185
671203
671262
672392
673081
673123
673185
674750
676240
676319
676404
677501
677557
677603
679020
680192
680797
680826
680827
681500
681606
683132
683435
683439
683506
683920
684194
685684
686268
686526
687049
687898
687956
688308
689242
690132
690143
690276
692009
692873
692958
694721
694724
694766
695463
695501
696204
696215
696299
696300
697151
697187
698180
699582
702142
702613
702721
703267
703269
703874
703895
704205
704206
705194
705294
705974
706009
706787
707440
707759
707760
708622
708642
708899
709420
709426
710595
710625
711422
712591
712628
713423
714026
714036
714401
716042
716063
716107
716290
716293
716296
716687
716701
716717
716734
717011
717267
717355
717361
717593
717609
718321
718948
719673
719674
719675
719676
719677
719678
719736
719841
719859
719893
721096
721292
721293
721584
721587
722051
722210
723061
723071
723119
723294
723661
724154
724838
725490
727203
727220
728248
728628
730505
730738
730749
731032
732298
732540
732549
732563
732758
733186
733511
733940
734247
734443
734457
734686
735102
735679
735897
736487
736500
736501
736505
736874
737396
737397
737435
737822
737843
737991
738116
738420
738474
738530
738531
738532
739474
739560
739964
740067
740073
740580
741249
741250
741251
741252
741253
741254
741294
741295
741297
742155
742176
742762
743294
743625
743708
743832
744377
744409
745814
745833
746277
746459
746645
747004
747084
747267
747268
747269
747350
747439
747529
747689
747892
747934
747939
748027
748079
748179
748180
748367
748462
748464
749091
749145
749375
749685
750017
750203
750741
751059
751785
751790
753270
753365
753418
753560
753910
754044
754109
754281
754554
754783
754924
757867
758141
758269
758543
758848
758856
758925
759501
760038
760115
760116
760400
760476
760488
760546
760616
760621
760757
760873
761215
761925
762383
762655
762904
762952
762953
762956
762960
763258
763288
763299
763447
763590
763882
764810
764815
764970
764988
765033
765360
765361
765895
766717
766775
766779
767194
767420
767705
767900
768117
768213
768421
768482
769156
769201
769302
769389
769462
769540
769687
769699
769926
769927
770181
770509
770652
770653
770684
770810
770843
770853
770898
771048
771243
771260
771399
771425
771490
771531
771596
771926
772192
772342
772343
772517
772566
773343
773405
773753
773838
773988
773989
774030
774248
774301
774317
774318
774372
775631
775632
776255
776370
777029
777030
777035
777037
777040
777042
777043
777589
777805
778214
778230
778367
778383
778413
778472
778824
778841
779041
779042
779065
779189
779571
779823
779938
779949
780016
780109
780124
780370
780384
780569
780800
780802
781016
781017
781019
781020
781025
781032
781624
781668
781720
781901
781902
781903
781904
781906
781987
782490
782544
782688
782763
782838
783014
783017
783048
783104
783105
783235
783344
783345
783346
783347
783685
783794
784108
784259
784297
784328
784365
784366
784615
784665
784683
784705
784830
784901
784960
784979
785741
785933
786016
786134
786153
786183
786344
786370
786382
786552
786568
786927
787048
787086
787103
787192
787264
787266
787516
787573
787583
787636
787712
787978
788252
788280
788417
788514
788641
788714
788727
788975
789030
789042
789378
789384
789805
789842
789904
790341
790463
790527
790528
790582
790756
790939
791043
791056
791355
791382
791453
791469
791683
791711
791831
791932
791977
792000
792060
792084
792099
792142
792191
792192
792250
792377
792585
792897
792905
792952
793053
793078
793361
793384
793539
793540
793541
793579
793591
793592
793625
793669
793842
793854
793884
793885
794083
794121
794164
794165
794239
794265
794266
794271
794477
794587
794597
794679
794795
794796
794934
795042
795118
795129
795159
795219
795220
795226
795237
795417
795545
795560
795702
795814
795829
795835
795842
795873
795905
795923
796002
796050
796057
796080
796104
796107
796153
796165
796175
796190
796298
796309
796315
796335
796391
796459
796467
796473
796480
796502
796657
796658
796672
796679
796719
796740
796770
796829
796846
796851
796860
796919
796940
796944
796950
796959
796981
797018
797029
797030
797031
797071
797074
797137
797148
797246
797259
797291
797298
797309
797339
797347
797348
797548
797565
797700
797701
797738
797740
797742
797773
797859
797903
797969
798008
798110
798147
798171
798222
798257
798296
798310
798325
798355
798356
798392
798422
798650
798707
798722
798734
798735
